module gitlab.com/ads-rotator/redirector

go 1.14

require (
	github.com/gofrs/uuid v3.3.0+incompatible // indirect
	github.com/gorilla/mux v1.7.4
	github.com/jackc/fake v0.0.0-20150926172116-812a484cc733 // indirect
	github.com/jackc/pgx v3.6.2+incompatible
	github.com/jackc/pgx/v4 v4.6.0
	github.com/joho/godotenv v1.3.0
	github.com/lib/pq v1.7.0 // indirect
	github.com/pkg/errors v0.9.1 // indirect
	github.com/shopspring/decimal v1.2.0 // indirect
	golang.org/x/crypto v0.0.0-20200604202706-70a84ac30bf9 // indirect
)
